<?xml version="1.0" encoding="UTF-8" standalone="no"?>
<svg
   xmlns:dc="http://purl.org/dc/elements/1.1/"
   xmlns:cc="http://creativecommons.org/ns#"
   xmlns:rdf="http://www.w3.org/1999/02/22-rdf-syntax-ns#"
   xmlns:svg="http://www.w3.org/2000/svg"
   xmlns="http://www.w3.org/2000/svg"
   xmlns:sodipodi="http://sodipodi.sourceforge.net/DTD/sodipodi-0.dtd"
   xmlns:inkscape="http://www.inkscape.org/namespaces/inkscape"
   version="1.1"
   x="0px"
   y="0px"
   viewBox="0 0 93.386477 44.232308"
   enable-background="new 0 0 100 100"
   xml:space="preserve"
   id="svg3069"
   inkscape:version="0.48.4 r9939"
   width="100%"
   height="100%"
   sodipodi:docname="link.svg"
   inkscape:export-filename="/home/awildsc/Desktop/link_16.png"
   inkscape:export-xdpi="15.419792"
   inkscape:export-ydpi="15.419792"><title
     id="title3089">Link</title><metadata
     id="metadata3087"><rdf:RDF><cc:Work
         rdf:about=""><dc:format>image/svg+xml</dc:format><dc:type
           rdf:resource="http://purl.org/dc/dcmitype/StillImage" /><dc:title>Link</dc:title><cc:license
           rdf:resource="http://creativecommons.org/licenses/publicdomain/" /></cc:Work><cc:License
         rdf:about="http://creativecommons.org/licenses/publicdomain/"><cc:permits
           rdf:resource="http://creativecommons.org/ns#Reproduction" /><cc:permits
           rdf:resource="http://creativecommons.org/ns#Distribution" /><cc:permits
           rdf:resource="http://creativecommons.org/ns#DerivativeWorks" /></cc:License></rdf:RDF></metadata><defs
     id="defs3085" /><sodipodi:namedview
     pagecolor="#ffffff"
     bordercolor="#666666"
     borderopacity="1"
     objecttolerance="10"
     gridtolerance="10"
     guidetolerance="10"
     inkscape:pageopacity="0"
     inkscape:pageshadow="2"
     inkscape:window-width="1471"
     inkscape:window-height="1003"
     id="namedview3083"
     showgrid="false"
     fit-margin-top="2"
     fit-margin-left="2"
     fit-margin-right="2"
     fit-margin-bottom="2"
     inkscape:zoom="6.675088"
     inkscape:cx="67.093952"
     inkscape:cy="11.72607"
     inkscape:window-x="65"
     inkscape:window-y="24"
     inkscape:window-maximized="0"
     inkscape:current-layer="svg3069" /><g
     id="g3071"
     transform="matrix(1.4224908,0,0,1.4224908,-33.852458,-50.457194)"><g
       id="g3073"><g
         id="g3075"><g
           id="g3077"><path
             d="m 63.515,65.159 h -2.81 c -0.188,0 -0.396,0 -0.584,-0.037 -1.207,-0.021 -2.395,-0.228 -3.508,-0.567 -2.902,-0.886 -5.43,-2.677 -7.202,-5.052 -0.472,-0.604 -0.867,-1.226 -1.206,-1.885 -0.32,-0.604 -0.604,-1.228 -0.811,-1.886 -0.546,-1.472 -0.83,-3.055 -0.83,-4.714 0,-1.659 0.284,-3.244 0.83,-4.713 h 5.146 c 0.358,0 0.697,0.036 1.037,0.113 -0.848,1.319 -1.357,2.902 -1.357,4.6 0,1.698 0.51,3.281 1.357,4.599 0.377,0.567 0.812,1.095 1.319,1.565 0.511,0.49 1.075,0.906 1.716,1.264 1.206,0.661 2.602,1.057 4.092,1.057 h 3.111 2.317 2.188 5.581 c 4.677,0 8.484,-3.808 8.484,-8.484 0,-4.676 -3.808,-8.483 -8.484,-8.483 H 68.32 c -1.205,-2.225 -2.846,-4.148 -4.807,-5.657 h 10.388 c 7.805,0 14.141,6.333 14.141,14.14 0,7.808 -6.336,14.141 -14.141,14.141 H 63.515 z"
             id="path3079"
             inkscape:connector-curvature="0" /><path
             d="M 58.348,44.854 C 57.82,44.363 57.255,43.93 56.614,43.592 55.409,42.91 54.012,42.535 52.542,42.535 h -3.13 -2.3 -2.169 -5.6 c -4.674,0 -8.483,3.807 -8.483,8.483 0,4.676 3.81,8.484 8.483,8.484 h 5.6 c 1.189,2.206 2.828,4.128 4.789,5.656 H 39.343 c -7.805,0 -14.139,-6.333 -14.139,-14.141 0,-7.807 6.334,-14.14 14.139,-14.14 h 10.389 2.81 c 0.208,0 0.396,0 0.586,0.037 1.205,0.019 2.374,0.228 3.486,0.567 2.923,0.886 5.448,2.676 7.203,5.052 0.489,0.603 0.886,1.226 1.225,1.885 0.319,0.604 0.604,1.226 0.812,1.886 0.547,1.469 0.828,3.054 0.828,4.713 0,1.659 -0.281,3.242 -0.828,4.714 h -5.147 c -0.356,0 -0.717,-0.037 -1.037,-0.115 0.867,-1.317 1.357,-2.9 1.357,-4.599 0,-1.697 -0.49,-3.28 -1.357,-4.6 -0.379,-0.565 -0.812,-1.092 -1.322,-1.563 z"
             id="path3081"
             inkscape:connector-curvature="0" /></g></g></g></g></svg>